{
  "data": [
    {
      "id": "64a1b2c3d4e5f6789012abcd",
      "accountName": "Acme Corporation",
      "accountNumber": "ACC-001234",
      "type": "Customer",
      "industry": "Technology",
      "phone": "+1-415-555-0100",
      "website": "https://www.acme.com",
      "annualRevenue": 5000000.00,
      "numberOfEmployees": 250,
      "description": "Leading provider of innovative solutions",
      "billingAddress": {
        "street": "123 Main St",
        "city": "San Francisco",
        "state": "CA",
        "postalCode": "94105",
        "country": "USA"
      },
      "shippingAddress": {
        "street": "123 Main St",
        "city": "San Francisco",
        "state": "CA",
        "postalCode": "94105",
        "country": "USA"
      },
      "ownerId": "user@example.com",
      "salesforceId": "0015g00000XxYzZAA1",
      "createdAt": "2024-01-10T08:00:00.000Z",
      "updatedAt": "2024-06-15T12:00:00.000Z"
    },
    {
      "id": "64b2c3d4e5f6a7890123bcde",
      "accountName": "Globex Industries",
      "accountNumber": "ACC-005678",
      "type": "Partner",
      "industry": "Machinery",
      "phone": "+1-312-555-0200",
      "website": "https://www.globex.com",
      "annualRevenue": 12000000.00,
      "numberOfEmployees": 500,
      "description": "Global manufacturing partner",
      "billingAddress": {
        "street": "456 Industrial Blvd",
        "city": "Chicago",
        "state": "IL",
        "postalCode": "60601",
        "country": "USA"
      },
      "ownerId": "manager@example.com",
      "salesforceId": "0015g00000YyZaaBB2",
      "createdAt": "2024-02-20T10:00:00.000Z",
      "updatedAt": "2024-07-01T09:00:00.000Z"
    }
  ],
  "meta": {
    "totalRecords": 150,
    "page": 1,
    "pageSize": 25,
    "totalPages": 6
  }
}
